Chapter 6 Graph Analysis | Spatial Data Science in R
…
roxel_nw1 <- as_sfnetwork(roxel, directed = FALSE)

The object looks similar to the tidygraph object we saw before.
New are the coordinate reference system and the coordinates of the nodes and edges.

roxel_nw1

## # A sfnetwork with 701 nodes and 851 edges
## #
## # CRS:  EPSG:4326 
## #
## # An undirected multigraph with 14 components with spatially explicit edges
## #
## # A tibble: 701 × 1
##              geometry
##           <POINT [°]>
## 1 (7.533722 51.95556)
## 2 (7.533461 51.95576)
## 3 (7.532442 51.95422)
## 4  (7.53209 51.95328)
## 5 (7.532709 51.95209)
## 6 (7.532869 51.95257)
## # ℹ 695 more rows
## #
## # A tibble: 851 × 5
##    from    to name                  type                                                         geometry
##   <int> <int> <chr>                 <fct>                                                <LINESTRING [°]>
## 1     1     2 Havixbecker Strasse   residential                    (7.533722 51.95556, 7.533461 51.95576)
## 2     3     4 Pienersallee          secondary     (7.532442 51.95422, 7.53236 51.95377, 7.53209 51.95328)
## 3     5     6 Schulte-Bernd-Strasse residential (7.532709 51.95209, 7.532823 51.95239, 7.532869 51.95257)
## # ℹ 848 more rows
…
Working with the spatial network works the same as the non-spatial tidygraph networks.

roxel_nw1 %>%
  activate("edges") %>%
  mutate(weight = edge_length()) %>%
  activate("nodes") %>%
  mutate(bc = centrality_betweenness(weights = weight, directed = FALSE))

## # A sfnetwork with 701 nodes and 851 edges
## #
## # CRS:  EPSG:4326 
## #
## # An undirected multigraph with 14 components with spatially explicit edges
## #
## # A tibble: 701 × 2
##              geometry    bc
##           <POINT [°]> <dbl>
## 1 (7.533722 51.95556) 13808
## 2 (7.533461 51.95576)  9777
## 3 (7.532442 51.95422) 35240
## 4  (7.53209 51.95328) 31745
## 5 (7.532709 51.95209)  7174
## 6 (7.532869 51.95257)  9081
## # ℹ 695 more rows
## #
## # A tibble: 851 × 6
##    from    to name                  type                                                         geometry weight
##   <int> <int> <chr>                 <fct>                                                <LINESTRING [°]>    [m]
## 1     1     2 Havixbecker Strasse   residential                    (7.533722 51.95556, 7.533461 51.95576)   28.8
## 2     3     4 Pienersallee          secondary     (7.532442 51.95422, 7.53236 51.95377, 7.53209 51.95328)  108. 
## 3     5     6 Schulte-Bernd-Strasse residential (7.532709 51.95209, 7.532823 51.95239, 7.532869 51.95257)   54.3
## # ℹ 848 more rows
…
